<svg width="40" height="40" viewBox="0 0 40 40" fill="none" xmlns="http://www.w3.org/2000/svg">
<mask id="mask0_34_64" style="mask-type:alpha" maskUnits="userSpaceOnUse" x="0" y="0" width="40" height="40">
<rect x="1" y="1" width="38" height="38" fill="#D9D9D9" stroke="#D95B15" stroke-width="2"/>
</mask>
<g mask="url(#mask0_34_64)">
<path d="M22.6246 14.0433L22.6241 14.0429C21.9076 13.3264 21.0139 12.958 20 12.958C18.9861 12.958 18.0924 13.3264 17.3759 14.0429L17.3755 14.0433C16.6598 14.7599 16.292 15.6535 16.292 16.667C16.292 17.6805 16.6598 18.574 17.3759 19.2901C18.0924 20.0066 18.9861 20.375 20 20.375C21.0139 20.375 21.9076 20.0066 22.6241 19.2901C23.3402 18.574 23.708 17.6805 23.708 16.667C23.708 15.6535 23.3402 14.7599 22.6246 14.0433ZM10.8844 24.9612L10.8844 24.9611C8.97365 21.9746 8.08301 19.3283 8.08301 17C8.08301 13.2082 9.29459 10.2744 11.6581 8.08808C14.0778 5.84966 16.8448 4.75 20 4.75C23.1552 4.75 25.9222 5.84966 28.3419 8.08808C30.7054 10.2744 31.917 13.2082 31.917 17C31.917 19.3283 31.0264 21.9746 29.1157 24.9611L29.1156 24.9612C27.2103 27.9402 24.2819 31.2046 20.2933 34.7529L20.2704 34.7733L20.2536 34.7901C20.2499 34.7921 20.2415 34.7961 20.2269 34.8009C20.1723 34.8191 20.0991 34.833 20 34.833C19.9461 34.833 19.8856 34.8244 19.8151 34.8009C19.7683 34.7854 19.7253 34.7633 19.683 34.7318C15.7065 31.1917 12.7859 27.9343 10.8844 24.9612Z" fill="#FF6A16" stroke="#D95B15" stroke-width="2"/>
</g>
</svg>
