<svg width="40" height="40" viewBox="0 0 40 40" fill="none" xmlns="http://www.w3.org/2000/svg">
<mask id="mask0_34_74" style="mask-type:alpha" maskUnits="userSpaceOnUse" x="0" y="0" width="40" height="40">
<rect width="40" height="40" fill="#D9D9D9"/>
</mask>
<g mask="url(#mask0_34_74)">
<path d="M32 33.958L22.208 24.167C21.3747 24.861 20.4027 25.4093 19.292 25.812C18.1807 26.2153 17.014 26.417 15.792 26.417C12.764 26.417 10.2083 25.3753 8.125 23.292C6.04167 21.2087 5 18.6807 5 15.708C5 12.736 6.04167 10.2013 8.125 8.10401C10.2083 6.00667 12.75 4.95801 15.75 4.95801C18.722 4.95801 21.2497 6.00667 23.333 8.10401C25.4163 10.2013 26.458 12.736 26.458 15.708C26.458 16.9027 26.2637 18.0487 25.875 19.146C25.4863 20.2433 24.917 21.264 24.167 22.208L34.042 32C34.3193 32.278 34.4513 32.6113 34.438 33C34.424 33.3887 34.278 33.708 34 33.958C33.722 34.236 33.3817 34.375 32.979 34.375C32.5763 34.375 32.25 34.236 32 33.958ZM15.75 23.625C17.9447 23.625 19.8127 22.854 21.354 21.312C22.896 19.7707 23.667 17.9027 23.667 15.708C23.667 13.514 22.896 11.639 21.354 10.083C19.8127 8.52767 17.9447 7.75001 15.75 7.75001C13.528 7.75001 11.646 8.52767 10.104 10.083C8.56267 11.639 7.792 13.514 7.792 15.708C7.792 17.9027 8.56267 19.7707 10.104 21.312C11.646 22.854 13.528 23.625 15.75 23.625ZM15.708 20.458C15.3193 20.458 14.993 20.3193 14.729 20.042C14.465 19.764 14.333 19.4307 14.333 19.042V17.042H12.292C11.9027 17.042 11.583 16.91 11.333 16.646C11.083 16.382 10.958 16.0557 10.958 15.667C10.958 15.2777 11.09 14.9513 11.354 14.688C11.618 14.424 11.9443 14.292 12.333 14.292H14.333V12.25C14.333 11.8887 14.472 11.5763 14.75 11.313C15.028 11.049 15.3613 10.917 15.75 10.917C16.1387 10.917 16.465 11.049 16.729 11.313C16.993 11.5763 17.125 11.9027 17.125 12.292V14.292H19.125C19.5137 14.292 19.833 14.424 20.083 14.688C20.333 14.9513 20.458 15.2777 20.458 15.667C20.458 16.0557 20.326 16.382 20.062 16.646C19.7987 16.91 19.4723 17.042 19.083 17.042H17.125V19.083C17.125 19.4723 16.986 19.7987 16.708 20.062C16.4307 20.326 16.0973 20.458 15.708 20.458Z" fill="#1C1B1F"/>
</g>
</svg>
